{
 "PluginInfo": {
  "Project": "Wwise_tank_engine",
  "Platform": "Windows",
  "BasePlatform": "Windows",
  "Plugins": [
   {
    "Name": "Wwise Parametric EQ",
    "ID": "6881283",
    "DLL": "AkParametricEQ",
    "StaticLib": "AkParametricEQFX"
   },
   {
    "Name": "Wwise Meter",
    "ID": "8454147",
    "DLL": "AkSoundEngineDLL",
    "StaticLib": "AkMeterFX"
   },
   {
    "Name": "Wwise Synth One",
    "ID": "9699330",
    "DLL": "AkSynthOne",
    "StaticLib": "AkSynthOneSource"
   },
   {
    "Name": "System",
    "ID": "11403271"
   },
   {
    "Name": "No Output",
    "ID": "11862023"
   }
  ]
 }
}