{
 "SoundBanksInfo": {
  "Platform": "Windows",
  "BasePlatform": "Windows",
  "SchemaVersion": "12",
  "SoundbankVersion": "140",
  "RootPaths": {
   "ProjectRoot": "C:\\Xssr_project\\Senior_Course\\Senior_tank_engine\\Wwise_tank_engine\\Wwise_tank_engine\\",
   "SourceFilesRoot": "C:\\Xssr_project\\Senior_Course\\Senior_tank_engine\\Wwise_tank_engine\\Wwise_tank_engine\\.cache\\Windows\\",
   "SoundBanksRoot": "C:\\Xssr_project\\Senior_Course\\Senior_tank_engine\\Wwise_tank_engine\\Wwise_tank_engine\\GeneratedSoundBanks\\Windows\\",
   "ExternalSourcesInputFile": "",
   "ExternalSourcesOutputRoot": "C:\\Xssr_project\\Senior_Course\\Senior_tank_engine\\Wwise_tank_engine\\Wwise_tank_engine\\GeneratedSoundBanks\\Windows"
  },
  "DialogueEvents": [],
  "StreamedFiles": [],
  "MediaFilesNotInAnyBank": [],
  "SoundBanks": [
   {
    "Id": "1355168291",
    "GUID": "{701ECBBD-9C7B-4030-8CDB-749EE5D1C7B9}",
    "Language": "SFX",
    "Hash": "110459599",
    "ObjectPath": "Init",
    "ShortName": "Init",
    "Path": "Init.bnk"
   },
   {
    "Id": "4056684167",
    "GUID": "{A316386A-C6A6-4184-B318-B4BB5580BC65}",
    "Language": "SFX",
    "Hash": "1606741704",
    "ObjectPath": "\\SoundBanks\\Default Work Unit\\Master",
    "ShortName": "Master",
    "Path": "Master.bnk",
    "IncludedEvents": [
     {
      "Id": "1302796115",
      "Name": "AmbBird1",
      "ObjectPath": "\\Events\\Ambient\\Fauna\\AmbBird1",
      "GUID": "{BC60858D-8358-4759-8F05-C8C76BDB38D7}",
      "MaxAttenuation": "8000.",
      "DurationType": "Infinite",
      "IncludedMemoryFiles": [
       {
        "Id": "332918819",
        "Language": "SFX",
        "ShortName": "Ambient\\Fauna\\AmbBird102.wav",
        "Path": "SFX\\Ambient\\Fauna\\AmbBird102_10C4C929.wem"
       },
       {
        "Id": "506492534",
        "Language": "SFX",
        "ShortName": "Ambient\\Fauna\\AmbBird101.wav",
        "Path": "SFX\\Ambient\\Fauna\\AmbBird101_10C4C929.wem"
       },
       {
        "Id": "925162688",
        "Language": "SFX",
        "ShortName": "Ambient\\Fauna\\AmbBird103.wav",
        "Path": "SFX\\Ambient\\Fauna\\AmbBird103_10C4C929.wem"
       },
       {
        "Id": "1003519345",
        "Language": "SFX",
        "ShortName": "Ambient\\Fauna\\AmbBird104.wav",
        "Path": "SFX\\Ambient\\Fauna\\AmbBird104_10C4C929.wem"
       }
      ]
     },
     {
      "Id": "1302796112",
      "Name": "AmbBird2",
      "ObjectPath": "\\Events\\Ambient\\Fauna\\AmbBird2",
      "GUID": "{F617BD5F-B713-47F5-AE79-9AE64189F663}",
      "MaxAttenuation": "8000.",
      "DurationType": "Infinite",
      "IncludedMemoryFiles": [
       {
        "Id": "452142732",
        "Language": "SFX",
        "ShortName": "Ambient\\Fauna\\AmbBird202.wav",
        "Path": "SFX\\Ambient\\Fauna\\AmbBird202_10C4C929.wem"
       },
       {
        "Id": "845229296",
        "Language": "SFX",
        "ShortName": "Ambient\\Fauna\\AmbBird201.wav",
        "Path": "SFX\\Ambient\\Fauna\\AmbBird201_10C4C929.wem"
       }
      ]
     },
     {
      "Id": "1001454755",
      "Name": "AmbBirdCrow",
      "ObjectPath": "\\Events\\Ambient\\Fauna\\AmbBirdCrow",
      "GUID": "{BFBE7C7A-2466-476C-93EC-0A2FAE7B8AF5}",
      "MaxAttenuation": "8000.",
      "DurationType": "Infinite",
      "IncludedMemoryFiles": [
       {
        "Id": "82902765",
        "Language": "SFX",
        "ShortName": "Ambient\\Fauna\\AmbBirdCrow03.wav",
        "Path": "SFX\\Ambient\\Fauna\\AmbBirdCrow03_10C4C929.wem"
       },
       {
        "Id": "213129527",
        "Language": "SFX",
        "ShortName": "Ambient\\Fauna\\AmbBirdCrow04.wav",
        "Path": "SFX\\Ambient\\Fauna\\AmbBirdCrow04_10C4C929.wem"
       },
       {
        "Id": "235275336",
        "Language": "SFX",
        "ShortName": "Ambient\\Fauna\\AmbBirdCrow01.wav",
        "Path": "SFX\\Ambient\\Fauna\\AmbBirdCrow01_10C4C929.wem"
       },
       {
        "Id": "454128382",
        "Language": "SFX",
        "ShortName": "Ambient\\Fauna\\AmbBirdCrow02.wav",
        "Path": "SFX\\Ambient\\Fauna\\AmbBirdCrow02_10C4C929.wem"
       }
      ]
     },
     {
      "Id": "2550518120",
      "Name": "AmbBirdWren",
      "ObjectPath": "\\Events\\Ambient\\Fauna\\AmbBirdWren",
      "GUID": "{2E2D35E2-FE9A-4E35-A6A7-4ADB8A2C3D8D}",
      "MaxAttenuation": "8000.",
      "DurationType": "Infinite",
      "IncludedMemoryFiles": [
       {
        "Id": "32249872",
        "Language": "SFX",
        "ShortName": "Ambient\\Fauna\\AmbBirdWren05.wav",
        "Path": "SFX\\Ambient\\Fauna\\AmbBirdWren05_10C4C929.wem"
       },
       {
        "Id": "350517978",
        "Language": "SFX",
        "ShortName": "Ambient\\Fauna\\AmbBirdWren02.wav",
        "Path": "SFX\\Ambient\\Fauna\\AmbBirdWren02_10C4C929.wem"
       },
       {
        "Id": "988609468",
        "Language": "SFX",
        "ShortName": "Ambient\\Fauna\\AmbBirdWren01.wav",
        "Path": "SFX\\Ambient\\Fauna\\AmbBirdWren01_10C4C929.wem"
       },
       {
        "Id": "1057557637",
        "Language": "SFX",
        "ShortName": "Ambient\\Fauna\\AmbBirdWren04.wav",
        "Path": "SFX\\Ambient\\Fauna\\AmbBirdWren04_10C4C929.wem"
       },
       {
        "Id": "1073377819",
        "Language": "SFX",
        "ShortName": "Ambient\\Fauna\\AmbBirdWren03.wav",
        "Path": "SFX\\Ambient\\Fauna\\AmbBirdWren03_10C4C929.wem"
       }
      ]
     },
     {
      "Id": "3614753360",
      "Name": "AmbInsectsGrassHoper",
      "ObjectPath": "\\Events\\Ambient\\Insects\\AmbInsectsGrassHoper",
      "GUID": "{6A083F5C-28C1-41C7-90EF-9CC0691CA520}",
      "MaxAttenuation": "5000.",
      "DurationType": "Infinite",
      "IncludedMemoryFiles": [
       {
        "Id": "519554262",
        "Language": "SFX",
        "ShortName": "Ambient\\Insects\\AmbInsectsGrassHoper201.wav",
        "Path": "SFX\\Ambient\\Insects\\AmbInsectsGrassHoper201_10C4C929.wem"
       },
       {
        "Id": "617187952",
        "Language": "SFX",
        "ShortName": "Ambient\\Insects\\AmbInsectGrasshoper202.wav",
        "Path": "SFX\\Ambient\\Insects\\AmbInsectGrasshoper202_10C4C929.wem"
       }
      ]
     },
     {
      "Id": "941459313",
      "Name": "AmbInsectsGrassHoper01",
      "ObjectPath": "\\Events\\Ambient\\Insects\\AmbInsectsGrassHoper01",
      "GUID": "{273AC256-EE57-43E3-AE6D-A9C8D61AE44E}",
      "MaxAttenuation": "4000.",
      "DurationType": "Infinite",
      "IncludedMemoryFiles": [
       {
        "Id": "855504289",
        "Language": "SFX",
        "ShortName": "Ambient\\Insects\\AmbInsectGrasshoper01.wav",
        "Path": "SFX\\Ambient\\Insects\\AmbInsectGrasshoper01_10C4C929.wem"
       }
      ]
     },
     {
      "Id": "389117517",
      "Name": "AmbWind",
      "ObjectPath": "\\Events\\Ambient\\AmbWind",
      "GUID": "{6A70232E-28F4-43DB-A5F8-15AF65EF8D34}",
      "DurationType": "Infinite",
      "IncludedMemoryFiles": [
       {
        "Id": "415810658",
        "Language": "SFX",
        "ShortName": "Ambient\\Wind\\AmbWindSoftGust01.wav",
        "Path": "SFX\\Ambient\\Wind\\AmbWindSoftGust01_10C4C929.wem"
       },
       {
        "Id": "483624178",
        "Language": "SFX",
        "ShortName": "Ambient\\Wind\\AmbWindSoftGust02.wav",
        "Path": "SFX\\Ambient\\Wind\\AmbWindSoftGust02_10C4C929.wem"
       },
       {
        "Id": "646347373",
        "Language": "SFX",
        "ShortName": "Ambient\\Wind\\AmbwWindSoft.wav",
        "Path": "SFX\\Ambient\\Wind\\AmbwWindSoft_931ADC88.wem"
       },
       {
        "Id": "990165540",
        "Language": "SFX",
        "ShortName": "Ambient\\Wind\\AmbWindSoftGust03.wav",
        "Path": "SFX\\Ambient\\Wind\\AmbWindSoftGust03_10C4C929.wem"
       }
      ]
     },
     {
      "Id": "3742232414",
      "Name": "EngT90",
      "ObjectPath": "\\Events\\Engine\\Eng\\EngT90",
      "GUID": "{306C5761-DF89-40EE-9547-B8262A443EEA}",
      "MaxAttenuation": "2000.",
      "DurationType": "Infinite",
      "IncludedMemoryFiles": [
       {
        "Id": "56692536",
        "Language": "SFX",
        "ShortName": "Engine\\T90\\EngT90Accel01.wav",
        "Path": "SFX\\Engine\\T90\\EngT90Accel01_9D2F1CA8.wem"
       },
       {
        "Id": "70855512",
        "Language": "SFX",
        "ShortName": "Engine\\T90\\EngT90OffloadHighRpm.wav",
        "Path": "SFX\\Engine\\T90\\EngT90OffloadHighRpm_BEF9ABB2.wem"
       },
       {
        "Id": "126879031",
        "Language": "SFX",
        "ShortName": "Engine\\T90\\EngT90Accel02.wav",
        "Path": "SFX\\Engine\\T90\\EngT90Accel02_6FA438E7.wem"
       },
       {
        "Id": "134962222",
        "Language": "SFX",
        "ShortName": "Engine\\T90\\EngT90Accel03.wav",
        "Path": "SFX\\Engine\\T90\\EngT90Accel03_4CE0C895.wem"
       },
       {
        "Id": "142036453",
        "Language": "SFX",
        "ShortName": "Engine\\T90\\EngT90OnloadLowRpm.wav",
        "Path": "SFX\\Engine\\T90\\EngT90OnloadLowRpm_CDD67BB4.wem"
       },
       {
        "Id": "153686812",
        "Language": "SFX",
        "ShortName": "Engine\\T90\\EngT90Idle03.wav",
        "Path": "SFX\\Engine\\T90\\EngT90Idle03_3F75BDB9.wem"
       },
       {
        "Id": "172849211",
        "Language": "SFX",
        "ShortName": "Engine\\T90\\EngT90Accel05.wav",
        "Path": "SFX\\Engine\\T90\\EngT90Accel05_B42F8477.wem"
       },
       {
        "Id": "186597598",
        "Language": "SFX",
        "ShortName": "Engine\\T90\\EngT90AccelExhaust02.wav",
        "Path": "SFX\\Engine\\T90\\EngT90AccelExhaust02_3F75BDB9.wem"
       },
       {
        "Id": "277983877",
        "Language": "SFX",
        "ShortName": "Roughness\\Suspention_rattle.wav",
        "Path": "SFX\\Roughness\\Suspention_rattle_124DBE05.wem"
       },
       {
        "Id": "361643225",
        "Language": "SFX",
        "ShortName": "Engine\\T90\\EngT90OffloadLowRpm.wav",
        "Path": "SFX\\Engine\\T90\\EngT90OffloadLowRpm_90CC8408.wem"
       },
       {
        "Id": "411314787",
        "Language": "SFX",
        "ShortName": "Engine\\T90\\EngT90Decel01.wav",
        "Path": "SFX\\Engine\\T90\\EngT90Decel01_59CC8416.wem"
       },
       {
        "Id": "431807165",
        "Language": "SFX",
        "ShortName": "Engine\\T90\\EngT90AccelExhaust03.wav",
        "Path": "SFX\\Engine\\T90\\EngT90AccelExhaust03_5F4B1CA4.wem"
       },
       {
        "Id": "436204619",
        "Language": "SFX",
        "ShortName": "Engine\\T90\\EngT90AccelExhaust01.wav",
        "Path": "SFX\\Engine\\T90\\EngT90AccelExhaust01_3F75BDB9.wem"
       },
       {
        "Id": "445574266",
        "Language": "SFX",
        "ShortName": "Engine\\T90\\EngT90Decel04.wav",
        "Path": "SFX\\Engine\\T90\\EngT90Decel04_A5220290.wem"
       },
       {
        "Id": "565469865",
        "Language": "SFX",
        "ShortName": "Engine\\T90\\EngT90OnloadHighRpm.wav",
        "Path": "SFX\\Engine\\T90\\EngT90OnloadHighRpm_14C5F602.wem"
       },
       {
        "Id": "635413872",
        "Language": "SFX",
        "ShortName": "Roughness\\Suspention_metal.wav",
        "Path": "SFX\\Roughness\\Suspention_metal_3314C532.wem"
       },
       {
        "Id": "662316903",
        "Language": "SFX",
        "ShortName": "Engine\\T90\\EngT90Decel05.wav",
        "Path": "SFX\\Engine\\T90\\EngT90Decel05_56744E4A.wem"
       },
       {
        "Id": "833341349",
        "Language": "SFX",
        "ShortName": "Engine\\T90\\EngT90Accel04.wav",
        "Path": "SFX\\Engine\\T90\\EngT90Accel04_08F23442.wem"
       },
       {
        "Id": "881619488",
        "Language": "SFX",
        "ShortName": "Engine\\T90\\EngT90Accel06.wav",
        "Path": "SFX\\Engine\\T90\\EngT90Accel06_5DBAC0B5.wem"
       },
       {
        "Id": "919333479",
        "Language": "SFX",
        "ShortName": "Engine\\T90\\EngT90Idle02.wav",
        "Path": "SFX\\Engine\\T90\\EngT90Idle02_3F75BDB9.wem"
       },
       {
        "Id": "983121388",
        "Language": "SFX",
        "ShortName": "Engine\\T90\\EngT90Idle01.wav",
        "Path": "SFX\\Engine\\T90\\EngT90Idle01_3F75BDB9.wem"
       },
       {
        "Id": "1001765240",
        "Language": "SFX",
        "ShortName": "Engine\\T90\\EngT90Decel02.wav",
        "Path": "SFX\\Engine\\T90\\EngT90Decel02_49CDD204.wem"
       },
       {
        "Id": "1053326236",
        "Language": "SFX",
        "ShortName": "Engine\\T90\\EngT90Decel03.wav",
        "Path": "SFX\\Engine\\T90\\EngT90Decel03_2E1E2EA1.wem"
       }
      ],
      "SwitchContainers": [
       {
        "SwitchValue": "{821D19B6-DB99-4AFF-A294-742776C8A0A9}",
        "Media": [
         {
          "Id": "56692536"
         },
         {
          "Id": "126879031"
         },
         {
          "Id": "134962222"
         },
         {
          "Id": "172849211"
         },
         {
          "Id": "186597598"
         },
         {
          "Id": "431807165"
         },
         {
          "Id": "436204619"
         },
         {
          "Id": "833341349"
         },
         {
          "Id": "881619488"
         }
        ]
       },
       {
        "SwitchValue": "{FFA52815-32B1-408F-888F-7EF67B12EA84}",
        "Media": [
         {
          "Id": "411314787"
         },
         {
          "Id": "445574266"
         },
         {
          "Id": "662316903"
         },
         {
          "Id": "1001765240"
         },
         {
          "Id": "1053326236"
         }
        ]
       }
      ]
     },
     {
      "Id": "1834394558",
      "Name": "Surface",
      "ObjectPath": "\\Events\\Treads\\Surface",
      "GUID": "{E7458355-06D7-4161-A209-B93BFEB0C629}",
      "MaxAttenuation": "1700.",
      "DurationType": "Infinite",
      "IncludedMemoryFiles": [
       {
        "Id": "5875463",
        "Language": "SFX",
        "ShortName": "Treads\\surfaces\\TrdsSurfaceGround03.wav",
        "Path": "SFX\\Treads\\surfaces\\TrdsSurfaceGround03_6C2FCD4D.wem"
       },
       {
        "Id": "8631838",
        "Language": "SFX",
        "ShortName": "Treads\\surfaces\\TrdsSurfaceRock06.wav",
        "Path": "SFX\\Treads\\surfaces\\TrdsSurfaceRock06_6C2FCD4D.wem"
       },
       {
        "Id": "203353998",
        "Language": "SFX",
        "ShortName": "Treads\\surfaces\\TrdsSurfaceSand01.wav",
        "Path": "SFX\\Treads\\surfaces\\TrdsSurfaceSand01_2202B3CA.wem"
       },
       {
        "Id": "204234874",
        "Language": "SFX",
        "ShortName": "Treads\\surfaces\\TrdsSurfaceRock03.wav",
        "Path": "SFX\\Treads\\surfaces\\TrdsSurfaceRock03_6C2FCD4D.wem"
       },
       {
        "Id": "281478563",
        "Language": "SFX",
        "ShortName": "Treads\\surfaces\\TrdsSurfaceRock08.wav",
        "Path": "SFX\\Treads\\surfaces\\TrdsSurfaceRock08_6C2FCD4D.wem"
       },
       {
        "Id": "299737186",
        "Language": "SFX",
        "ShortName": "Treads\\surfaces\\TrdsSurfaceGrass05.wav",
        "Path": "SFX\\Treads\\surfaces\\TrdsSurfaceGrass05_6C2FCD4D.wem"
       },
       {
        "Id": "302455094",
        "Language": "SFX",
        "ShortName": "Treads\\surfaces\\TrdsSurfaceRock04.wav",
        "Path": "SFX\\Treads\\surfaces\\TrdsSurfaceRock04_6C2FCD4D.wem"
       },
       {
        "Id": "392036205",
        "Language": "SFX",
        "ShortName": "Treads\\surfaces\\TrdsSurfaceSand02.wav",
        "Path": "SFX\\Treads\\surfaces\\TrdsSurfaceSand02_2202B3CA.wem"
       },
       {
        "Id": "467327351",
        "Language": "SFX",
        "ShortName": "Treads\\surfaces\\TrdsSurfaceGround02.wav",
        "Path": "SFX\\Treads\\surfaces\\TrdsSurfaceGround02_6C2FCD4D.wem"
       },
       {
        "Id": "482531175",
        "Language": "SFX",
        "ShortName": "Treads\\surfaces\\TrdsSurfaceGrass04.wav",
        "Path": "SFX\\Treads\\surfaces\\TrdsSurfaceGrass04_6C2FCD4D.wem"
       },
       {
        "Id": "516044596",
        "Language": "SFX",
        "ShortName": "Treads\\surfaces\\TrdsSurfaceGround07.wav",
        "Path": "SFX\\Treads\\surfaces\\TrdsSurfaceGround07_6C2FCD4D.wem"
       },
       {
        "Id": "536651377",
        "Language": "SFX",
        "ShortName": "Treads\\surfaces\\TrdsSurfaceGround04.wav",
        "Path": "SFX\\Treads\\surfaces\\TrdsSurfaceGround04_6C2FCD4D.wem"
       },
       {
        "Id": "541122415",
        "Language": "SFX",
        "ShortName": "Treads\\surfaces\\TrdsSurfaceSand06.wav",
        "Path": "SFX\\Treads\\surfaces\\TrdsSurfaceSand06_2202B3CA.wem"
       },
       {
        "Id": "559640128",
        "Language": "SFX",
        "ShortName": "Treads\\surfaces\\TrdsSurfaceGround01.wav",
        "Path": "SFX\\Treads\\surfaces\\TrdsSurfaceGround01_6C2FCD4D.wem"
       },
       {
        "Id": "586322212",
        "Language": "SFX",
        "ShortName": "Treads\\surfaces\\TrdsSurfaceRock02.wav",
        "Path": "SFX\\Treads\\surfaces\\TrdsSurfaceRock02_6C2FCD4D.wem"
       },
       {
        "Id": "619081803",
        "Language": "SFX",
        "ShortName": "Treads\\surfaces\\TrdsSurfaceGrass08.wav",
        "Path": "SFX\\Treads\\surfaces\\TrdsSurfaceGrass08_6C2FCD4D.wem"
       },
       {
        "Id": "661095671",
        "Language": "SFX",
        "ShortName": "Treads\\surfaces\\TrdsSurfaceGrass07.wav",
        "Path": "SFX\\Treads\\surfaces\\TrdsSurfaceGrass07_6C2FCD4D.wem"
       },
       {
        "Id": "664206171",
        "Language": "SFX",
        "ShortName": "Treads\\surfaces\\TrdsSurfaceSand03.wav",
        "Path": "SFX\\Treads\\surfaces\\TrdsSurfaceSand03_2202B3CA.wem"
       },
       {
        "Id": "696157901",
        "Language": "SFX",
        "ShortName": "Treads\\surfaces\\TrdsSurfaceRock01.wav",
        "Path": "SFX\\Treads\\surfaces\\TrdsSurfaceRock01_6C2FCD4D.wem"
       },
       {
        "Id": "698470880",
        "Language": "SFX",
        "ShortName": "Treads\\surfaces\\TrdsSurfaceSand04.wav",
        "Path": "SFX\\Treads\\surfaces\\TrdsSurfaceSand04_2202B3CA.wem"
       },
       {
        "Id": "745759647",
        "Language": "SFX",
        "ShortName": "Treads\\surfaces\\TrdsSurfaceRock05.wav",
        "Path": "SFX\\Treads\\surfaces\\TrdsSurfaceRock05_6C2FCD4D.wem"
       },
       {
        "Id": "808069823",
        "Language": "SFX",
        "ShortName": "Treads\\surfaces\\TrdsSurfaceGrass02.wav",
        "Path": "SFX\\Treads\\surfaces\\TrdsSurfaceGrass02_6C2FCD4D.wem"
       },
       {
        "Id": "838568424",
        "Language": "SFX",
        "ShortName": "Treads\\surfaces\\TrdsSurfaceGround05.wav",
        "Path": "SFX\\Treads\\surfaces\\TrdsSurfaceGround05_6C2FCD4D.wem"
       },
       {
        "Id": "856203204",
        "Language": "SFX",
        "ShortName": "Treads\\surfaces\\TrdsSurfaceGrass06.wav",
        "Path": "SFX\\Treads\\surfaces\\TrdsSurfaceGrass06_6C2FCD4D.wem"
       },
       {
        "Id": "859306744",
        "Language": "SFX",
        "ShortName": "Treads\\surfaces\\TrdsSurfaceRock07.wav",
        "Path": "SFX\\Treads\\surfaces\\TrdsSurfaceRock07_6C2FCD4D.wem"
       },
       {
        "Id": "912607216",
        "Language": "SFX",
        "ShortName": "Treads\\surfaces\\TrdsSurfaceGround08.wav",
        "Path": "SFX\\Treads\\surfaces\\TrdsSurfaceGround08_6C2FCD4D.wem"
       },
       {
        "Id": "986529620",
        "Language": "SFX",
        "ShortName": "Treads\\surfaces\\TrdsSurfaceSand07.wav",
        "Path": "SFX\\Treads\\surfaces\\TrdsSurfaceSand07_2202B3CA.wem"
       },
       {
        "Id": "999689945",
        "Language": "SFX",
        "ShortName": "Treads\\surfaces\\TrdsSurfaceSand08.wav",
        "Path": "SFX\\Treads\\surfaces\\TrdsSurfaceSand08_2202B3CA.wem"
       },
       {
        "Id": "1034996831",
        "Language": "SFX",
        "ShortName": "Treads\\surfaces\\TrdsSurfaceSand05.wav",
        "Path": "SFX\\Treads\\surfaces\\TrdsSurfaceSand05_2202B3CA.wem"
       },
       {
        "Id": "1036035106",
        "Language": "SFX",
        "ShortName": "Treads\\surfaces\\TrdsSurfaceGrass01.wav",
        "Path": "SFX\\Treads\\surfaces\\TrdsSurfaceGrass01_6C2FCD4D.wem"
       },
       {
        "Id": "1062071572",
        "Language": "SFX",
        "ShortName": "Treads\\surfaces\\TrdsSurfaceGrass03.wav",
        "Path": "SFX\\Treads\\surfaces\\TrdsSurfaceGrass03_6C2FCD4D.wem"
       },
       {
        "Id": "1068461026",
        "Language": "SFX",
        "ShortName": "Treads\\surfaces\\TrdsSurfaceGround06.wav",
        "Path": "SFX\\Treads\\surfaces\\TrdsSurfaceGround06_6C2FCD4D.wem"
       }
      ],
      "DefaultSwitchValue": "{EE252626-1140-43C1-83DF-5B8346E85173}",
      "SwitchContainers": [
       {
        "SwitchValue": "{EE252626-1140-43C1-83DF-5B8346E85173}",
        "Media": [
         {
          "Id": "5875463"
         },
         {
          "Id": "467327351"
         },
         {
          "Id": "516044596"
         },
         {
          "Id": "536651377"
         },
         {
          "Id": "559640128"
         },
         {
          "Id": "838568424"
         },
         {
          "Id": "912607216"
         },
         {
          "Id": "1068461026"
         }
        ]
       },
       {
        "SwitchValue": "{2C7C90AE-E127-4CC7-90FE-C8BF84E83BF0}",
        "Media": [
         {
          "Id": "203353998"
         },
         {
          "Id": "392036205"
         },
         {
          "Id": "541122415"
         },
         {
          "Id": "664206171"
         },
         {
          "Id": "698470880"
         },
         {
          "Id": "986529620"
         },
         {
          "Id": "999689945"
         },
         {
          "Id": "1034996831"
         }
        ]
       },
       {
        "SwitchValue": "{EC8A9CC4-91FD-4441-A9F3-E6666A29BC6D}",
        "Media": [
         {
          "Id": "8631838"
         },
         {
          "Id": "204234874"
         },
         {
          "Id": "281478563"
         },
         {
          "Id": "302455094"
         },
         {
          "Id": "586322212"
         },
         {
          "Id": "696157901"
         },
         {
          "Id": "745759647"
         },
         {
          "Id": "859306744"
         }
        ]
       },
       {
        "SwitchValue": "{3D7F5DFB-0BE0-4576-A411-58C6EE8BEBE7}",
        "Media": [
         {
          "Id": "299737186"
         },
         {
          "Id": "482531175"
         },
         {
          "Id": "619081803"
         },
         {
          "Id": "661095671"
         },
         {
          "Id": "808069823"
         },
         {
          "Id": "856203204"
         },
         {
          "Id": "1036035106"
         },
         {
          "Id": "1062071572"
         }
        ]
       }
      ]
     },
     {
      "Id": "2423502021",
      "Name": "T90Turbine",
      "ObjectPath": "\\Events\\Engine\\Eng\\T90Turbine",
      "GUID": "{32DE7955-030C-4BD6-8428-05154ED2CB5A}",
      "DurationType": "Infinite",
      "IncludedMemoryFiles": [
       {
        "Id": "244395847",
        "Language": "SFX",
        "ShortName": "Engine\\T90\\EngT90TurbineMain.wav",
        "Path": "SFX\\Engine\\T90\\EngT90TurbineMain_9EDFC787.wem"
       },
       {
        "Id": "917887768",
        "Language": "SFX",
        "ShortName": "Engine\\T90\\EngT90TurbineHigh.wav",
        "Path": "SFX\\Engine\\T90\\EngT90TurbineHigh_9EDFC787.wem"
       },
       {
        "Id": "918628161",
        "Language": "SFX",
        "ShortName": "Engine\\T90\\EngT90TurbineLow.wav",
        "Path": "SFX\\Engine\\T90\\EngT90TurbineLow_9EDFC787.wem"
       }
      ]
     },
     {
      "Id": "1918047511",
      "Name": "TreadsMetal",
      "ObjectPath": "\\Events\\Treads\\TreadsMetal",
      "GUID": "{6A7DBE7D-5EDB-4CC5-A2C5-28F9492FC293}",
      "MaxAttenuation": "2300.",
      "DurationType": "Infinite",
      "IncludedMemoryFiles": [
       {
        "Id": "19639403",
        "Language": "SFX",
        "ShortName": "Treads\\TreadsMetal\\TreadsMetal05.wav",
        "Path": "SFX\\Treads\\TreadsMetal\\TreadsMetal05_946239C7.wem"
       },
       {
        "Id": "28211131",
        "Language": "SFX",
        "ShortName": "Treads\\TreadsMetal\\TreadsMetal06.wav",
        "Path": "SFX\\Treads\\TreadsMetal\\TreadsMetal06_946239C7.wem"
       },
       {
        "Id": "28393019",
        "Language": "SFX",
        "ShortName": "Treads\\TreadsMetal\\TreadsMetal27.wav",
        "Path": "SFX\\Treads\\TreadsMetal\\TreadsMetal27_946239C7.wem"
       },
       {
        "Id": "41185031",
        "Language": "SFX",
        "ShortName": "Treads\\cling\\TreadsCling13.wav",
        "Path": "SFX\\Treads\\cling\\TreadsCling13_946239C7.wem"
       },
       {
        "Id": "45711208",
        "Language": "SFX",
        "ShortName": "Treads\\TreadsMetal\\TreadsMetal17.wav",
        "Path": "SFX\\Treads\\TreadsMetal\\TreadsMetal17_946239C7.wem"
       },
       {
        "Id": "142390441",
        "Language": "SFX",
        "ShortName": "Treads\\TreadsMetal\\TreadsMetalStop06.wav",
        "Path": "SFX\\Treads\\TreadsMetal\\TreadsMetalStop06_D44E75DF.wem"
       },
       {
        "Id": "149325916",
        "Language": "SFX",
        "ShortName": "Treads\\cling\\TreadsCling10.wav",
        "Path": "SFX\\Treads\\cling\\TreadsCling10_946239C7.wem"
       },
       {
        "Id": "151157929",
        "Language": "SFX",
        "ShortName": "Treads\\cling\\TreadsCling04.wav",
        "Path": "SFX\\Treads\\cling\\TreadsCling04_946239C7.wem"
       },
       {
        "Id": "154307632",
        "Language": "SFX",
        "ShortName": "Treads\\cling\\TreadsCling09.wav",
        "Path": "SFX\\Treads\\cling\\TreadsCling09_946239C7.wem"
       },
       {
        "Id": "167930407",
        "Language": "SFX",
        "ShortName": "Treads\\TreadsMetal\\TreadsMetal14.wav",
        "Path": "SFX\\Treads\\TreadsMetal\\TreadsMetal14_946239C7.wem"
       },
       {
        "Id": "185009635",
        "Language": "SFX",
        "ShortName": "Treads\\TreadsMetal\\TreadsMetal10.wav",
        "Path": "SFX\\Treads\\TreadsMetal\\TreadsMetal10_946239C7.wem"
       },
       {
        "Id": "192362078",
        "Language": "SFX",
        "ShortName": "Treads\\cling\\TreadsCling14.wav",
        "Path": "SFX\\Treads\\cling\\TreadsCling14_946239C7.wem"
       },
       {
        "Id": "195822407",
        "Language": "SFX",
        "ShortName": "Treads\\cling\\TreadsCling03.wav",
        "Path": "SFX\\Treads\\cling\\TreadsCling03_946239C7.wem"
       },
       {
        "Id": "221974028",
        "Language": "SFX",
        "ShortName": "Treads\\TreadsMetal\\TreadsMetal31.wav",
        "Path": "SFX\\Treads\\TreadsMetal\\TreadsMetal31_946239C7.wem"
       },
       {
        "Id": "231502913",
        "Language": "SFX",
        "ShortName": "Treads\\TreadsMetal\\TreadsMetal23.wav",
        "Path": "SFX\\Treads\\TreadsMetal\\TreadsMetal23_946239C7.wem"
       },
       {
        "Id": "238881902",
        "Language": "SFX",
        "ShortName": "Treads\\TreadsMetal\\TreadsMetal15.wav",
        "Path": "SFX\\Treads\\TreadsMetal\\TreadsMetal15_946239C7.wem"
       },
       {
        "Id": "260138359",
        "Language": "SFX",
        "ShortName": "Treads\\TreadsMetal\\TreadsMetal04.wav",
        "Path": "SFX\\Treads\\TreadsMetal\\TreadsMetal04_946239C7.wem"
       },
       {
        "Id": "309105339",
        "Language": "SFX",
        "ShortName": "Treads\\TreadsMetal\\TreadsMetal12.wav",
        "Path": "SFX\\Treads\\TreadsMetal\\TreadsMetal12_946239C7.wem"
       },
       {
        "Id": "311297409",
        "Language": "SFX",
        "ShortName": "Treads\\TreadsMetal\\TreadsMetal28.wav",
        "Path": "SFX\\Treads\\TreadsMetal\\TreadsMetal28_946239C7.wem"
       },
       {
        "Id": "365159803",
        "Language": "SFX",
        "ShortName": "Treads\\TreadsMetal\\TreadsMetal32.wav",
        "Path": "SFX\\Treads\\TreadsMetal\\TreadsMetal32_946239C7.wem"
       },
       {
        "Id": "401435789",
        "Language": "SFX",
        "ShortName": "Treads\\TreadsMetal\\TreadsMetal18.wav",
        "Path": "SFX\\Treads\\TreadsMetal\\TreadsMetal18_946239C7.wem"
       },
       {
        "Id": "401928309",
        "Language": "SFX",
        "ShortName": "Treads\\TreadsMetal\\TreadsMetal20.wav",
        "Path": "SFX\\Treads\\TreadsMetal\\TreadsMetal20_946239C7.wem"
       },
       {
        "Id": "403192394",
        "Language": "SFX",
        "ShortName": "Treads\\cling\\TreadsCling06.wav",
        "Path": "SFX\\Treads\\cling\\TreadsCling06_946239C7.wem"
       },
       {
        "Id": "403440555",
        "Language": "SFX",
        "ShortName": "Treads\\TreadsMetal\\TreadsMetal29.wav",
        "Path": "SFX\\Treads\\TreadsMetal\\TreadsMetal29_946239C7.wem"
       },
       {
        "Id": "403503465",
        "Language": "SFX",
        "ShortName": "Treads\\TreadsMetal\\TreadsMetalStop01.wav",
        "Path": "SFX\\Treads\\TreadsMetal\\TreadsMetalStop01_2C5210BA.wem"
       },
       {
        "Id": "412068624",
        "Language": "SFX",
        "ShortName": "Treads\\cling\\TreadsCling07.wav",
        "Path": "SFX\\Treads\\cling\\TreadsCling07_946239C7.wem"
       },
       {
        "Id": "457861089",
        "Language": "SFX",
        "ShortName": "Treads\\cling\\TreadsCling05.wav",
        "Path": "SFX\\Treads\\cling\\TreadsCling05_946239C7.wem"
       },
       {
        "Id": "463337261",
        "Language": "SFX",
        "ShortName": "Treads\\TreadsMetal\\TreadsMetal13.wav",
        "Path": "SFX\\Treads\\TreadsMetal\\TreadsMetal13_946239C7.wem"
       },
       {
        "Id": "542820981",
        "Language": "SFX",
        "ShortName": "Treads\\TreadsMetal\\TreadsMetal25.wav",
        "Path": "SFX\\Treads\\TreadsMetal\\TreadsMetal25_946239C7.wem"
       },
       {
        "Id": "565793610",
        "Language": "SFX",
        "ShortName": "Treads\\TreadsMetal\\TreadsMetal09.wav",
        "Path": "SFX\\Treads\\TreadsMetal\\TreadsMetal09_946239C7.wem"
       },
       {
        "Id": "574864366",
        "Language": "SFX",
        "ShortName": "Treads\\TreadsMetal\\TreadsMetal07.wav",
        "Path": "SFX\\Treads\\TreadsMetal\\TreadsMetal07_946239C7.wem"
       },
       {
        "Id": "592728220",
        "Language": "SFX",
        "ShortName": "Treads\\TreadsMetal\\TreadsMetal30.wav",
        "Path": "SFX\\Treads\\TreadsMetal\\TreadsMetal30_946239C7.wem"
       },
       {
        "Id": "598692576",
        "Language": "SFX",
        "ShortName": "Treads\\TreadsMetal\\TreadsMetalStop02.wav",
        "Path": "SFX\\Treads\\TreadsMetal\\TreadsMetalStop02_11660EE0.wem"
       },
       {
        "Id": "658188860",
        "Language": "SFX",
        "ShortName": "Treads\\cling\\TreadsCling01.wav",
        "Path": "SFX\\Treads\\cling\\TreadsCling01_946239C7.wem"
       },
       {
        "Id": "691469133",
        "Language": "SFX",
        "ShortName": "Treads\\TreadsMetal\\TreadsMetal22.wav",
        "Path": "SFX\\Treads\\TreadsMetal\\TreadsMetal22_946239C7.wem"
       },
       {
        "Id": "725937881",
        "Language": "SFX",
        "ShortName": "Treads\\TreadsMetal\\TreadsMetalStop05.wav",
        "Path": "SFX\\Treads\\TreadsMetal\\TreadsMetalStop05_EAA7155F.wem"
       },
       {
        "Id": "746322645",
        "Language": "SFX",
        "ShortName": "Treads\\TreadsMetal\\TreadsMetal08.wav",
        "Path": "SFX\\Treads\\TreadsMetal\\TreadsMetal08_946239C7.wem"
       },
       {
        "Id": "803813941",
        "Language": "SFX",
        "ShortName": "Treads\\TreadsMetal\\TreadsMetal01.wav",
        "Path": "SFX\\Treads\\TreadsMetal\\TreadsMetal01_946239C7.wem"
       },
       {
        "Id": "808648308",
        "Language": "SFX",
        "ShortName": "Treads\\TreadsMetal\\TreadsMetalStop07.wav",
        "Path": "SFX\\Treads\\TreadsMetal\\TreadsMetalStop07_851CF46A.wem"
       },
       {
        "Id": "819100399",
        "Language": "SFX",
        "ShortName": "Treads\\TreadsMetal\\TreadsMetal16.wav",
        "Path": "SFX\\Treads\\TreadsMetal\\TreadsMetal16_946239C7.wem"
       },
       {
        "Id": "834141890",
        "Language": "SFX",
        "ShortName": "Treads\\TreadsMetal\\TreadsMetalStop04.wav",
        "Path": "SFX\\Treads\\TreadsMetal\\TreadsMetalStop04_0F8CE254.wem"
       },
       {
        "Id": "835698163",
        "Language": "SFX",
        "ShortName": "Treads\\cling\\TreadsCling11.wav",
        "Path": "SFX\\Treads\\cling\\TreadsCling11_946239C7.wem"
       },
       {
        "Id": "859018669",
        "Language": "SFX",
        "ShortName": "Treads\\TreadsMetal\\TreadsMetal02.wav",
        "Path": "SFX\\Treads\\TreadsMetal\\TreadsMetal02_946239C7.wem"
       },
       {
        "Id": "899153322",
        "Language": "SFX",
        "ShortName": "Treads\\TreadsMetal\\TreadsMetal21.wav",
        "Path": "SFX\\Treads\\TreadsMetal\\TreadsMetal21_946239C7.wem"
       },
       {
        "Id": "935095385",
        "Language": "SFX",
        "ShortName": "Treads\\TreadsMetal\\TreadsMetal03.wav",
        "Path": "SFX\\Treads\\TreadsMetal\\TreadsMetal03_946239C7.wem"
       },
       {
        "Id": "946582935",
        "Language": "SFX",
        "ShortName": "Treads\\cling\\TreadsСling08.wav",
        "Path": "SFX\\Treads\\cling\\TreadsСling08_946239C7.wem"
       },
       {
        "Id": "957500007",
        "Language": "SFX",
        "ShortName": "Treads\\TreadsMetal\\TreadsMetal24.wav",
        "Path": "SFX\\Treads\\TreadsMetal\\TreadsMetal24_946239C7.wem"
       },
       {
        "Id": "977220016",
        "Language": "SFX",
        "ShortName": "Treads\\TreadsMetal\\TreadsMetal11.wav",
        "Path": "SFX\\Treads\\TreadsMetal\\TreadsMetal11_946239C7.wem"
       },
       {
        "Id": "983124074",
        "Language": "SFX",
        "ShortName": "Treads\\TreadsMetal\\TreadsMetal26.wav",
        "Path": "SFX\\Treads\\TreadsMetal\\TreadsMetal26_946239C7.wem"
       },
       {
        "Id": "988570209",
        "Language": "SFX",
        "ShortName": "Treads\\cling\\TreadsCling12.wav",
        "Path": "SFX\\Treads\\cling\\TreadsCling12_946239C7.wem"
       },
       {
        "Id": "1008658434",
        "Language": "SFX",
        "ShortName": "Treads\\cling\\TreadsCling02.wav",
        "Path": "SFX\\Treads\\cling\\TreadsCling02_946239C7.wem"
       },
       {
        "Id": "1042995498",
        "Language": "SFX",
        "ShortName": "Treads\\TreadsMetal\\TreadsMetal19.wav",
        "Path": "SFX\\Treads\\TreadsMetal\\TreadsMetal19_946239C7.wem"
       },
       {
        "Id": "1070995526",
        "Language": "SFX",
        "ShortName": "Treads\\TreadsMetal\\TreadsMetalStop03.wav",
        "Path": "SFX\\Treads\\TreadsMetal\\TreadsMetalStop03_A6C26434.wem"
       }
      ],
      "DefaultSwitchValue": "{4DAD1808-D25A-480B-AD43-47A5A37689D0}",
      "SwitchContainers": [
       {
        "SwitchValue": "{1345AADA-52FF-43C5-9641-6AB66BAF9020}",
        "Media": [
         {
          "Id": "142390441"
         },
         {
          "Id": "403503465"
         },
         {
          "Id": "598692576"
         },
         {
          "Id": "725937881"
         },
         {
          "Id": "808648308"
         },
         {
          "Id": "834141890"
         },
         {
          "Id": "1070995526"
         }
        ]
       }
      ]
     }
    ],
    "GameParameters": [
     {
      "Id": "48761280",
      "Name": "RtpcExtPressure",
      "ObjectPath": "\\Game Parameters\\Vehicles\\RtpcExtPressure",
      "GUID": "{FEB1BFF7-54BA-45D2-A9F6-B372F8405AE5}"
     },
     {
      "Id": "302850890",
      "Name": "RtpcExtEngineCondition",
      "ObjectPath": "\\Game Parameters\\Vehicles\\RtpcExtEngineCondition",
      "GUID": "{0CCDCB18-B478-4A7C-906E-E35084D7B5D2}"
     },
     {
      "Id": "581811118",
      "Name": "RtpcExtTurbine",
      "ObjectPath": "\\Game Parameters\\Vehicles\\RtpcExtTurbine",
      "GUID": "{D1B07163-CC3C-4570-BD74-36A15EF43613}"
     },
     {
      "Id": "1050711847",
      "Name": "RtpcExtSuspentionVibration",
      "ObjectPath": "\\Game Parameters\\Vehicles\\RtpcExtSuspentionVibration",
      "GUID": "{848B788E-F884-4B96-9DE6-156BDCF0D853}"
     },
     {
      "Id": "2597920162",
      "Name": "RtpcExtEnginePower",
      "ObjectPath": "\\Game Parameters\\Vehicles\\RtpcExtEnginePower",
      "GUID": "{CD4421DE-B357-4AD5-B481-00171BA6DAB8}"
     },
     {
      "Id": "3649480365",
      "Name": "RtpcIntL60Accel",
      "ObjectPath": "\\Game Parameters\\Vehicles\\RtpcIntL60Accel",
      "GUID": "{C4D968BB-A462-4F59-B68A-C7569CB5A19D}"
     },
     {
      "Id": "3854064348",
      "Name": "RtpcIntScDecel",
      "ObjectPath": "\\Game Parameters\\Vehicles\\RtpcIntScDecel",
      "GUID": "{6E427DD8-E71F-458A-AC00-5713A4831D05}"
     },
     {
      "Id": "3901767277",
      "Name": "RtpcExtTrackRollerScroll",
      "ObjectPath": "\\Game Parameters\\Vehicles\\RtpcExtTrackRollerScroll",
      "GUID": "{BD26F65F-6906-4161-A367-4AE0B7CF13B7}"
     },
     {
      "Id": "4004937938",
      "Name": "RtpcExtEngineRpm",
      "ObjectPath": "\\Game Parameters\\Vehicles\\RtpcExtEngineRpm",
      "GUID": "{0375B0BE-E571-4AD5-8701-3C60454B1D61}"
     }
    ],
    "SwitchGroups": [
     {
      "Id": "84442775",
      "Name": "SwitchIntEngDecel",
      "ObjectPath": "\\Switches\\Default Work Unit\\SwitchIntEngDecel",
      "GUID": "{DFAB8459-4614-49F0-9B22-A49939AA3F3F}",
      "Switches": [
       {
        "Id": "1766958939",
        "Name": "SwitchIntEngDecOff",
        "ObjectPath": "\\Switches\\Default Work Unit\\SwitchIntEngDecel\\SwitchIntEngDecOff",
        "GUID": "{5BE5245E-9625-49FD-89EA-E4016F447C1A}"
       },
       {
        "Id": "4278744551",
        "Name": "SwitchIntEngDecOn",
        "ObjectPath": "\\Switches\\Default Work Unit\\SwitchIntEngDecel\\SwitchIntEngDecOn",
        "GUID": "{FFA52815-32B1-408F-888F-7EF67B12EA84}"
       }
      ]
     },
     {
      "Id": "892075985",
      "Name": "SwitchIntTrdsStop",
      "ObjectPath": "\\Switches\\Default Work Unit\\SwitchIntTrdsStop",
      "GUID": "{782EF262-E68E-431C-A1A6-C3689E0BADFD}",
      "Switches": [
       {
        "Id": "3230522912",
        "Name": "SwitchIntTrdsStopOff",
        "ObjectPath": "\\Switches\\Default Work Unit\\SwitchIntTrdsStop\\SwitchIntTrdsStopOff",
        "GUID": "{4DAD1808-D25A-480B-AD43-47A5A37689D0}"
       },
       {
        "Id": "899165290",
        "Name": "SwitchIntTrdsStopOn",
        "ObjectPath": "\\Switches\\Default Work Unit\\SwitchIntTrdsStop\\SwitchIntTrdsStopOn",
        "GUID": "{1345AADA-52FF-43C5-9641-6AB66BAF9020}"
       }
      ]
     },
     {
      "Id": "2457477156",
      "Name": "SwitchIntEngAccel",
      "ObjectPath": "\\Switches\\Default Work Unit\\SwitchIntEngAccel",
      "GUID": "{B2B3B0FE-FB38-4F0F-A77D-8ABEDD31526D}",
      "Switches": [
       {
        "Id": "3560028022",
        "Name": "SwitchIntEngAccOff",
        "ObjectPath": "\\Switches\\Default Work Unit\\SwitchIntEngAccel\\SwitchIntEngAccOff",
        "GUID": "{C7468B94-7898-4EF5-A063-AE6F616BC096}"
       },
       {
        "Id": "2356811448",
        "Name": "SwitchIntEngAccOn",
        "ObjectPath": "\\Switches\\Default Work Unit\\SwitchIntEngAccel\\SwitchIntEngAccOn",
        "GUID": "{821D19B6-DB99-4AFF-A294-742776C8A0A9}"
       }
      ]
     },
     {
      "Id": "3390157355",
      "Name": "SwitchExtSurface",
      "ObjectPath": "\\Switches\\Default Work Unit\\SwitchExtSurface",
      "GUID": "{1EED79A2-C5A6-4BA3-A097-4DE669E66E70}",
      "Switches": [
       {
        "Id": "2479080995",
        "Name": "SwitchExtSurfaceGrass",
        "ObjectPath": "\\Switches\\Default Work Unit\\SwitchExtSurface\\SwitchExtSurfaceGrass",
        "GUID": "{3D7F5DFB-0BE0-4576-A411-58C6EE8BEBE7}"
       },
       {
        "Id": "1305511189",
        "Name": "SwitchExtSurfaceSand",
        "ObjectPath": "\\Switches\\Default Work Unit\\SwitchExtSurface\\SwitchExtSurfaceSand",
        "GUID": "{2C7C90AE-E127-4CC7-90FE-C8BF84E83BF0}"
       },
       {
        "Id": "2949213846",
        "Name": "SwitchExtSurfaceGround",
        "ObjectPath": "\\Switches\\Default Work Unit\\SwitchExtSurface\\SwitchExtSurfaceGround",
        "GUID": "{EE252626-1140-43C1-83DF-5B8346E85173}"
       },
       {
        "Id": "2913787704",
        "Name": "SwitchExtSurfaceRock",
        "ObjectPath": "\\Switches\\Default Work Unit\\SwitchExtSurface\\SwitchExtSurfaceRock",
        "GUID": "{EC8A9CC4-91FD-4441-A9F3-E6666A29BC6D}"
       }
      ]
     }
    ]
   }
  ]
 }
}